module project_second

go 1.22.0

require (
	github.com/dgrijalva/jwt-go v3.2.0+incompatible
	github.com/gin-gonic/gin v1.9.1
)

require (
	github.com/bytedance/sonic v1.11.4 // indirect
	github.com/cloudwego/base64x v0.1.3 // indirect
	github.com/cloudwego/iasm v0.2.0 // indirect
	github.com/gabriel-vasile/mimetype v1.4.3 // indirect
	github.com/gin-contrib/sse v0.1.0 // indirect
	github.com/go-playground/locales v0.14.1 // indirect
	github.com/go-playground/universal-translator v0.18.1 // indirect
	github.com/go-playground/validator/v10 v10.19.0 // indirect
	github.com/goccy/go-json v0.10.2 // indirect
	github.com/json-iterator/go v1.1.12 // indirect
	github.com/klauspost/cpuid/v2 v2.2.7 // indirect
	github.com/leodido/go-urn v1.4.0 // indirect
	github.com/mattn/go-isatty v0.0.20 // indirect
	github.com/modern-go/concurrent v0.0.0-20180306012644-bacd9c7ef1dd // indirect
	github.com/modern-go/reflect2 v1.0.2 // indirect
	github.com/pelletier/go-toml/v2 v2.2.1 // indirect
	github.com/twitchyliquid64/golang-asm v0.15.1 // indirect
	github.com/ugorji/go/codec v1.2.12 // indirect
	golang.org/x/arch v0.7.0 // indirect
	golang.org/x/crypto v0.22.0 // indirect
	golang.org/x/net v0.24.0 // indirect
	golang.org/x/sys v0.19.0 // indirect
	golang.org/x/text v0.14.0 // indirect
	google.golang.org/protobuf v1.33.0 // indirect
	gopkg.in/yaml.v3 v3.0.1 // indirect
)
